{
    "test": {
        "PORT": 3000,
        "MONGODB_URI": "mongodb://localhost:27017/AmazonAppTest"
    },
    "development": {
        "PORT": 3000,
        "MONGODB_URI": "mongodb://localhost:27017/AmazonApp"
    }
}